<?xml version="1.0" encoding="utf-8"?>
<!-- Generator: Adobe Illustrator 21.1.0, SVG Export Plug-In . SVG Version: 6.00 Build 0)  -->
<svg version="1.1" id="Layer_1" xmlns="http://www.w3.org/2000/svg" xmlns:xlink="http://www.w3.org/1999/xlink" x="0px" y="0px"
	 viewBox="0 0 108 108" style="enable-background:new 0 0 108 108;" xml:space="preserve">
<style type="text/css">
	.st0{fill:#FFFFFF;}
</style>
<g>
	<path class="st0" d="M54,0.1C61.3,0.2,68.7,0.2,76,0.5c6.8,0.2,13.4,1.6,19.1,5.6c6.7,4.7,10.4,11.3,11.7,19.3
		c1,5.8,0.9,11.7,1,17.6c0,9.3,0.1,18.6-0.1,28c-0.1,5.7-0.3,11.5-2.2,17c-3.7,10.4-11,16.6-21.7,18.6c-4.8,0.9-9.8,1.1-14.6,1.2
		c-10.7,0.2-21.5,0.1-32.2,0c-5.7-0.1-11.5-0.3-17-2.2c-10.4-3.7-16.4-11-18.7-21.6c-1-4.8-1.1-9.8-1.2-14.7
		c-0.1-10.7-0.1-21.5,0-32.2c0.1-5.7,0.3-11.5,2.2-17C6.1,9.7,13.5,3.7,24.1,1.4c4.8-1,9.8-1.1,14.7-1.2c5.1-0.1,10.1,0,15.2,0
		C54,0.2,54,0.1,54,0.1z M98.3,54c-0.1,0-0.1,0-0.2,0c0-4.5,0.1-9.1,0-13.6c-0.2-4.6-0.3-9.2-0.9-13.7c-1.1-8.2-6.7-13.8-14.7-15.7
		c-4.9-1.1-9.8-1-14.8-1.1c-9.1-0.1-18.2-0.1-27.3,0c-4.6,0.1-9.2,0.2-13.7,1c-7.6,1.2-12.8,5.5-15.2,13c-1.4,4.6-1.4,9.3-1.5,14
		C9.8,45.3,9.8,52.7,9.9,60c0.1,6.6,0.1,13.3,0.8,19.9c0.9,8.8,5.9,15,14.9,17.1c4.9,1.1,9.9,1,14.9,1.1c9,0.1,18.1,0.1,27.1,0
		c4.6-0.1,9.2-0.2,13.7-0.9c7.8-1.2,13.1-5.6,15.3-13.3c0.7-2.5,1.1-5.2,1.2-7.9C98.1,68.7,98.1,61.3,98.3,54z"/>
	<path class="st0" d="M54,81.7c-15.5,0-27.6-12.3-27.7-27.8c0-15.1,12.6-27.6,27.9-27.5c15,0.1,27.6,12.6,27.4,28
		C81.5,69.4,69.2,81.7,54,81.7z M71.9,54c0-9.8-8.1-17.9-18-17.9c-9.8,0-17.9,8.1-17.9,17.9c0,9.9,8.1,18,18,18
		C63.9,72,72,63.8,71.9,54z"/>
	<path class="st0" d="M82.8,18.8c3.7,0,6.4,2.8,6.4,6.5c0,3.5-2.9,6.5-6.4,6.5c-3.6,0-6.6-3-6.5-6.5C76.2,21.7,79.2,18.8,82.8,18.8z
		"/>
</g>
</svg>
