<?xml version="1.0" encoding="utf-8"?>
<!-- Generator: Adobe Illustrator 21.1.0, SVG Export Plug-In . SVG Version: 6.00 Build 0)  -->
<svg version="1.1" id="Layer_1" xmlns="http://www.w3.org/2000/svg" xmlns:xlink="http://www.w3.org/1999/xlink" x="0px" y="0px"
	 viewBox="0 0 108 108" style="enable-background:new 0 0 108 108;" xml:space="preserve">
<style type="text/css">
	.st0{fill:#FFFFFF;}
</style>
<g>
	<path class="st0" d="M0.5,92.8c1.2,0.7,2.3,1.5,3.5,2c3.3,1.5,6.5,3.1,9.9,4.3c4.9,1.8,10.1,2.8,15.4,3.2c4.9,0.3,9.9,0.2,14.8-0.5
		c5.7-0.9,11.3-2.4,16.6-4.8c4.6-2.1,8.8-4.7,12.7-7.8c3.3-2.7,6.4-5.6,9-9.1c2.2-2.9,4.3-6,6.2-9.1c2.8-4.6,4.7-9.6,6.2-14.7
		c1.7-6.1,2.5-12.4,2.3-18.8c0-0.6,0.2-1,0.6-1.3c1.5-1.3,3.1-2.5,4.5-3.9c2.2-2,4-4.3,5.8-7c-4,1.7-7.9,2.9-12.1,3.2
		c4.3-3,7.4-6.8,9.1-11.9c-0.6,0.3-1,0.4-1.3,0.7c-3.8,2.1-7.8,3.5-12,4.5c-0.5,0.1-0.9,0-1.2-0.3c-3.3-3.4-7.3-5.4-12-6.2
		c-6.7-1.1-12.7,0.5-17.9,4.9c-5.6,4.8-8.3,11-7.8,18.4c0.1,1.2,0.2,2.3,0.4,3.6c-18.5-1.3-33.6-9-45.6-23.1
		c-2.8,5.1-3.6,10.4-2.4,16c1.2,5.6,4.3,9.9,9.1,13.4c-3.7,0-6.8-1.1-9.9-2.6c0,5.3,1.6,10,4.8,14c3.2,4.1,7.4,6.6,12.5,7.9
		c-3.1,0.9-6.2,0.9-9.5,0.4c1,3.3,2.7,6,4.9,8.4c4.2,4.4,9.4,6.7,15.4,7.1C23.1,90.8,12.4,93.8,0.5,92.8z"/>
	<path class="st0" d="M0.5,92.8c11.9,0.9,22.6-2,32.1-9.3c-6.1-0.4-11.2-2.7-15.4-7.1c-2.2-2.3-3.9-5.1-4.9-8.4
		c3.3,0.5,6.4,0.4,9.5-0.4c-5-1.3-9.2-3.9-12.5-7.9c-3.2-4.1-4.8-8.7-4.8-14c3.1,1.5,6.2,2.6,9.9,2.6c-4.8-3.5-7.9-7.9-9.1-13.4
		c-1.2-5.6-0.4-10.9,2.4-16C19.6,33,34.8,40.8,53.2,42c-0.1-1.3-0.3-2.5-0.4-3.6C52.4,31,55.1,24.8,60.7,20
		c5.1-4.4,11.2-5.9,17.9-4.9c4.6,0.7,8.6,2.8,12,6.2c0.4,0.4,0.7,0.5,1.2,0.3c4.2-0.9,8.2-2.4,12-4.5c0.4-0.2,0.8-0.4,1.3-0.7
		c-1.7,5.1-4.8,9-9.1,11.9c4.1-0.3,8-1.5,12.1-3.2c-1.8,2.7-3.7,5-5.8,7c-1.4,1.3-3,2.6-4.5,3.9c-0.4,0.4-0.6,0.7-0.6,1.3
		c0.3,6.4-0.6,12.7-2.3,18.8c-1.4,5.2-3.4,10.1-6.2,14.7c-1.9,3.1-4,6.2-6.2,9.1c-2.6,3.4-5.7,6.4-9,9.1c-3.9,3.1-8.1,5.8-12.7,7.8
		c-5.3,2.4-10.8,3.9-16.6,4.8c-4.9,0.7-9.8,0.8-14.8,0.5C24.1,102,18.9,101,14,99.2c-3.4-1.3-6.6-2.8-9.9-4.3
		C2.8,94.3,1.7,93.5,0.5,92.8z"/>
</g>
</svg>
